{
	"_embedded": {
		"request_fields": [{
			"reference": null,
			"name": "Qual será o serviço?",
			"label": "Qual será o serviço?",
			"placeholder": "Qual será o serviço?",
			"mask": "tipo de serviço",
			"type": "enumerable",
			"required": true,
			"allow_multiple_value": true,
			"allow_custom_value": false,
			"values": {
				"Coloração": "Coloração",
				"Corte": "Corte",
				"Escova ": "Escova ",
				"Escova progressiva/definitiva": "Escova progressiva/definitiva",
				"Luzes": "Luzes",
				"Manicure": "Manicure",
				"Pedicure": "Pedicure",
				"Penteado": "Penteado"
			},
			"_embedded": {
				"nested_fields": []
			}
		}, {
			"reference": null,
			"name": "Para quem será o serviço?",
			"label": "Para quem será o serviço?",
			"placeholder": "Para quem será o serviço?",
			"mask": "indique para quem será o serviço",
			"type": "enumerable",
			"required": false,
			"allow_multiple_value": true,
			"allow_custom_value": false,
			"values": {
				"Criança": "Criança",
				"Homem": "Homem",
				"Mulher": "Mulher"
			},
			"_embedded": {
				"nested_fields": []
			}
		}, {
			"reference": null,
			"name": "O serviço será para quantas pessoas?",
			"label": "O serviço será para quantas pessoas?",
			"placeholder": "O serviço será para quantas pessoas?",
			"mask": "indique o número de pessoas",
			"type": "enumerable",
			"required": false,
			"allow_multiple_value": false,
			"allow_custom_value": false,
			"values": {
				"1": "1",
				"2": "2",
				"Mais de 3": "Mais de 3"
			},
			"_embedded": {
				"nested_fields": []
			}
		}, {
			"reference": null,
			"name": "Para quando você precisa deste serviço?",
			"label": "Para quando você precisa deste serviço?",
			"placeholder": "Para quando você precisa deste serviço?",
			"mask": "Indique o prazo do serviço",
			"type": "enumerable",
			"required": true,
			"allow_multiple_value": false,
			"allow_custom_value": false,
			"values": {
				"Hoje ou nos próximos dias": "Hoje ou nos próximos dias",
				"Nos próximos 30 dias": "Nos próximos 30 dias",
				"Nos próximos 3 meses": "Nos próximos 3 meses",
				"Ainda não tenho previsão": "Ainda não tenho previsão"
			},
			"_embedded": {
				"nested_fields": []
			}
		}, {
			"name": "Informações Adicionais",
			"label": "Informações Adicionais",
			"type": "big_text",
			"placeholder": "Descreva o que você precisa",
			"required": false
		}],
		"user_fields": [{
			"name": "lat_lng",
			"label": "Em que bairro será o serviço?",
			"type": "tel",
			"placeholder": "",
			"required": true
		}, {
			"name": "name",
			"label": "Nome",
			"type": "text",
			"placeholder": "",
			"required": true
		}, {
			"name": "email",
			"label": "Email",
			"type": "email",
			"placeholder": "Ex: nome@email.com",
			"required": true
		}, {
			"name": "phone",
			"label": "Celular",
			"type": "phone",
			"placeholder": "",
			"required": true
		}]
	}
}
